^C:\XLETL\XLETL.TASKMANAGER\CONTROLS\DBCONNECTOR.RESX
^C:\XLETL\XLETL.TASKMANAGER\FORMS\DBDETAILSDIALOG.RESX
^C:\XLETL\XLETL.TASKMANAGER\FORMS\LOGINFORM.RESX
^C:\XLETL\XLETL.TASKMANAGER\FORMS\MAINFORM.RESX
^C:\XLETL\XLETL.TASKMANAGER\CONTROLS\TRANSFORMATIONPLUGINSDIALOG.RESX
^C:\XLETL\XLETL.TASKMANAGER\FORMS\USERDETAILSDIALOG.RESX
^C:\XLETL\XLETL.TASKMANAGER\PROPERTIES\RESOURCES.RESX
C:\XLETL\XLETL.TASKMANAGER\RESOURCES\SPLASH_BANNER.GIF
^C:\XLETL\XLETL.TASKMANAGER\CONTROLS\TRANSFORMATIONPROPERTY.RESX
^C:\XLETL\XLETL.TASKMANAGER\FORMS\PROCESSTASKDIALOG.RESX
^C:\XLETL\XLETL.TASKMANAGER\FORMS\TASKSCHEDULEDIALOG.RESX
^C:\XLETL\XLETL.TASKMANAGER\FORMS\BUILDTASKDIALOG.RESX
C:\XLETL\XLETL.MODEL\BIN\RELEASE\XLETL.MODEL.DLL
^C:\XLETL\XLETL.TASKMANAGER\FORMS\VIEWETLLOGS.RESX
C:\WINDOWS\MICROSOFT.NET\FRAMEWORK64\V2.0.50727\CONFIG\SECURITY.CONFIG
